…
Univariate Plots Section

Candidate Donation Counts

I started by taking a look at the first three columns of the data set, which represent Committee Id, Candidate Id, and Candidate Name. I checked to be sure the information was consistent across all three columns. For example, I wanted to assure we never saw candidate As Id in the same row as candidate Bs name. There were 24 candidates who received donations from Pennsylvania.

I looked at the whole data set and see 243513 rows, each which represent one donation made to a presidential candidate. I checked the contribution amounts and checked to see how many rows represent donations (positive receipts) and how many were refunds. Nearly 99% of the donation lines represent donations so this report will analyze donations further.

The listings and plots below show that Democrats Hillary Clinton and Bernie Sanders had the most donations, followed by Donald Trump in third place. Hillary Clinton received nearly half of the total number of donations from Pennsylvanians while Bernie Sanders netted nearly 25 percent so the two leading Democratic candidates netted over 70 percent of all donations in Pennsylvania. Among the Republicans, Donald Trump had the most donations with Ted Cruz getting just above half of Trumps number. Republicans Benjamin Carson, Marco Rubio, and Rand Paul are in 5th to 7th place, each receiving over 1000 donations. These donation counts represent the total number of donations from early 2015 through the November 2016 election.

## [1] "Unique Candidate Count: "

## [1] 24

## # A tibble: 24 x 3
## # Groups:   Committee Id, Candidate Id [24]
##    `Committee Id` `Candidate Id`          `Candidate Name`
##             <chr>         <fctr>                    <fctr>
##  1      C00458844      P60006723              Rubio, Marco
##  2      C00500587      P20003281    Perry, James R. (Rick)
##  3      C00573519      P60005915       Carson, Benjamin S.
##  4      C00574624      P60006111 Cruz, Rafael Edward 'Ted'
##  5      C00575449      P40003576                Paul, Rand
##  6      C00575795      P00003392   Clinton, Hillary Rodham
##  7      C00577130      P60007168          Sanders, Bernard
##  8      C00577312      P60007242            Fiorina, Carly
##  9      C00577981      P80003478            Huckabee, Mike
## 10      C00578245      P60007572         Pataki, George E.
## # ... with 14 more rows

## [1] "Total Donation Lines Count: "

## [1] 243513

## [1] "Total Donation / Refund Counts: "

## [1] 240788

## [1] 2725

## # A tibble: 24 x 4
##             `Candidate Name` `Political Party` `Donation Count` `Refund Count`
##                       <fctr>             <chr>            <dbl>          <dbl>
##  1   Clinton, Hillary Rodham        Democratic           118218           1003
##  2          Sanders, Bernard        Democratic            59249            372
##  3          Trump, Donald J.        Republican            29884            770
##  4 Cruz, Rafael Edward 'Ted'        Republican            15313            230
##  5       Carson, Benjamin S.        Republican             9708             91
##  6              Rubio, Marco        Republican             2902            163
##  7                Paul, Rand        Republican             1189              3
##  8           Kasich, John R.        Republican              999             20
##  9            Fiorina, Carly        Republican              947             18
## 10                 Bush, Jeb        Republican              527             18
## # ... with 14 more rows
…
Bivariate Plots Section

Candidate Donation Sums

The Bivariate part of the investigation begins by examining the total amount of donations raised by the candidates.

Democratic candidate Hillary Clinton raised the greatest sum of money at nearly $13 million - nearly half of the total sum raised for Pennsylvania! Republican Donald Trump raised the second highest sum despite having the third highest number of donations. However, Trump raised only one third as much money as Clinton did in Pennsylvania. Democrat Bernie Sanders had the third highest total money raised with the second highest number of donors.

Republican Ted Cruz raised the fourth highest amount of money and had the fourth highest number of donors. Marco Rubio sneaked into fifth place for money raised in Pennsylvania despite having only 30 percent as many individual donations as sixth place finisher Ben Carson.

## [1] "Total Donation Sum: "

## [1] "26,245,104"

## # A tibble: 24 x 4
##             `Candidate Name` `Political Party` `Donation Count` `Donation Sum`
##                       <fctr>             <chr>            <dbl>          <dbl>
##  1   Clinton, Hillary Rodham        Democratic           118218     12987486.0
##  2          Trump, Donald J.        Republican            29884      4261938.9
##  3          Sanders, Bernard        Democratic            59249      2525635.7
##  4 Cruz, Rafael Edward 'Ted'        Republican            15313      1547920.2
##  5              Rubio, Marco        Republican             2902      1205312.8
##  6       Carson, Benjamin S.        Republican             9708       921625.4
##  7           Kasich, John R.        Republican              999       644423.1
##  8                 Bush, Jeb        Republican              527       479538.0
##  9  Christie, Christopher J.        Republican              298       436091.0
## 10            Fiorina, Carly        Republican              947       353288.3
## # ... with 14 more rows
…
Candidate Amount per Donation

In this section, I will investigate the amount of money per donations raised by the candidates and the major political parties. The table below shows little relationship between the amount per donation and how the candidate performed in Pennsylvania! Most of the highest scorers in this category, such as New Jersey Governor Chris Christie, were not even in the race by the time of Pennsylvanias primary! Earlier primary contests in Iowa, New Hampshire, South Carolina, and Florida narrowed the contestants on the Republican side.

When we narrow the list to Pennsylvania primary contestants, Republican John R. Kasich raised the most money per donation ($645!) but he finished with only 20% of the Republican vote. He only had 999 donations, far less than anyone else in this list. Donald Trump raised $142.62 per donation and won the primary vote easily with over 56% of the vote. The lowest amount per donation was Bernie Sanders with only $42.63 per donation. Sanders finished behind Clinton in Pennsylvania by 12 points (56-44%).

The amount per donation (as well as total money raised) is not a good predictor of the winners of the primary and general election but may tell us about who is donating to each candidate.

## [1] "Candidate Amount per Donation:"

## # A tibble: 24 x 3
##             `Candidate Name` `Political Party` `Amount per Donation`
##                       <fctr>             <chr>                 <dbl>
##  1   Clinton, Hillary Rodham        Democratic             109.86048
##  2          Trump, Donald J.        Republican             142.61608
##  3          Sanders, Bernard        Democratic              42.62748
##  4 Cruz, Rafael Edward 'Ted'        Republican             101.08537
##  5              Rubio, Marco        Republican             415.33865
##  6       Carson, Benjamin S.        Republican              94.93463
##  7           Kasich, John R.        Republican             645.06812
##  8                 Bush, Jeb        Republican             909.93928
##  9  Christie, Christopher J.        Republican            1463.39262
## 10            Fiorina, Carly        Republican             373.06048
## # ... with 14 more rows
…
Donations by Season

This part of the report investigates donations by seasons for candidates where the season refers to either the 2016 primaries or general election season. The primary season is denoted by P2016 and the general election season is denoted by G2016. The first plot below does not surprise based on the univariate analysis. When grouped by election type indicator and candidate name, Hillary Clinton lands the top two positions. She raised $7 million during the general election thanks to nearly 77000 donors. Mrs.Clinton raised close to $6 million during the primary season, getting donations from 41527 donors.

Donald Trump raised just over $2.9 million during the 2016 general election campaign in Pennsylvania, the most among Republicans in an election season. During the 2016 primaries, Bernard Sanders was able to net his $2.5 million dollars on 59242 donors during the primaries, the second highest during the primaries. Senator Ted Cruz raised about $120K more money than Donald Trump during the Republican primary although Trump had 950 more individual donors.

## # A tibble: 40 x 5
##    Season          `Candidate Name` `Political Party` `Donation Count` `Donation Sum`
##     <chr>                    <fctr>             <chr>            <int>          <dbl>
##  1  G2016   Clinton, Hillary Rodham        Democratic            76691      7036664.6
##  2  P2016   Clinton, Hillary Rodham        Democratic            41527      5950821.4
##  3  G2016          Trump, Donald J.        Republican            13688      2906628.4
##  4  P2016          Sanders, Bernard        Democratic            59249      2525635.7
##  5  P2016 Cruz, Rafael Edward 'Ted'        Republican            15246      1472701.6
##  6  P2016          Trump, Donald J.        Republican            16196      1355310.5
##  7  P2016              Rubio, Marco        Republican             2836      1077475.8
##  8  P2016       Carson, Benjamin S.        Republican             9662       902265.4
##  9  P2016           Kasich, John R.        Republican              981       613523.1
## 10  P2016                 Bush, Jeb        Republican              523       472638.0
## # ... with 30 more rows
…
Description One

The above plot shows the sum of donations made to Presidential Candidates during the primaries - with both Republican and Democratic candidates shown together. The y-axis is transformed using the square root function. The top two Democratic candidates each raised more money than any of the Republican candidates. Hillary Clintons $7 million is more than the sum of the top five Republican candidates put together! Bernie Sanders, the second place Democrat, received more monetary donations than the highest Republican donation sum. Senator Ted Cruz of Texas received more donations than frontrunner Donald Trump ($1.5 million to $1.35 million) yet Trump won the Republican primary by a wide margin.

Plot Two

## # A tibble: 60 x 4
## # Groups:   Occupation Category [?]
##    `Occupation Category` `Donation Month` num_donations sum_donations
##                    <chr>            <chr>         <int>         <dbl>
##  1              ATTORNEY        2015 / 04             1      51860.00
##  2              ATTORNEY        2015 / 05             1      34682.72
##  3              ATTORNEY        2015 / 06             1      96017.89
##  4              ATTORNEY        2015 / 07             1     102360.00
##  5              ATTORNEY        2015 / 08             1       6615.00
##  6              ATTORNEY        2015 / 09             1       9973.10
##  7              ATTORNEY        2015 / 10             1      35000.68
##  8              ATTORNEY        2015 / 11             1      12801.65
##  9              ATTORNEY        2015 / 12             1      47787.69
## 10              ATTORNEY        2016 / 01             1     100145.53
## # ... with 50 more rows
…
